{
  "apps": [
    {
      "name": "way2money_events_android",
      "script": "main/eventsprocess.js",
      "exec_mode": "fork",
      "args":"android",
      "instances": "1",
      "env": {
        "NODE_ENV": "prod"
      },
      "out_file": "/dev/null",
      "log_date_format": "YYYY-MM-DD HH:mm:ss"
    }
  ]

}
